(node,ts,n0,n1,n2)
0:(0,0,false,false,false)
1:(0,1,false,false,false)
2:(0,2,false,false,false)
3:(0,3,false,false,false)
4:(1,0,true,false,false)
5:(1,1,false,false,false)
6:(1,2,false,false,false)
7:(1,3,false,false,false)
8:(2,1,false,true,false)
9:(2,2,false,false,false)
10:(2,2,true,false,false)
11:(2,3,false,false,false)
